{
    "fieldPermissionSubjects" : [
        {
            "modelName" : "ticket",
            "modelClass" : "net.grouplink.ehelpdesk.domain.Ticket",
            "fields" : [
                    "contact",
                    "submittedBy",
                    "assignedTo",
                    "priority",
                    "status",
                    "location",
                    "group",
                    "category",
                    "categoryOption",
                    "subject",
                    "note",
                    "createdDate",
                    "modifiedDate",
                    "estimatedDate",
                    "workTime",
                    "cc",
                    "bc",
                    "parent",
                    "knowledgeBase",
                    "zenInformation",
                    "ticketHistory",
                    "attachments",
                    "subtickets",
                    "ticketAudit",
                    "asset",
                    "surveyData",
                    "zenAsset",
                    "notifyTech",
                    "notifyUser"
            ]
        }
    ],
    "permissionSubjects" : [
        {
            "modelName" : "ticket",
            "modelClass" : "net.grouplink.ehelpdesk.domain.Ticket"
        }
    ]
}